[
    {
        "cityName": "Seattle Washington",
        "latitude": "47.6062095",
        "longitude": "-122.3320708",
        "itemName": "item0"
    },
    {
        "cityName": "bellevue, wa",
        "latitude": "47.610377",
        "longitude": "-122.2006786",
        "itemName": "item1"
    },
    {
        "cityName": "Everett Washington",
        "latitude": "47.9789848",
        "longitude": "-122.2020794",
        "itemName": "item2"
    },
    {
        "cityName": "Kent Washington",
        "latitude": "47.3809335",
        "longitude": "-122.23484310000003",
        "itemName": "item3"
    }
]